Using Generalized Additive Mixed Models • gammit
…
with conditional variances for "Subject" 

extract_ranef(ga_model)
# A tibble: 36 x 7
   group_var effect    group   value    se lower_2.5 upper_97.5
   <chr>     <chr>     <chr>   <dbl> <dbl>     <dbl>      <dbl>
 1 Subject   Intercept 308     1.51   13.3    -24.5        27.5
 2 Subject   Intercept 309   -40.4    13.3    -66.4       -14.3
 3 Subject   Intercept 310   -39.2    13.3    -65.2       -13.2
 4 Subject   Intercept 330    24.5    13.3     -1.51       50.5
 5 Subject   Intercept 331    22.9    13.3     -3.11       48.9
 6 Subject   Intercept 332     9.22   13.3    -16.8        35.2
 7 Subject   Intercept 333    17.2    13.3     -8.87       43.2
 8 Subject   Intercept 334    -7.45   13.3    -33.5        18.6
 9 Subject   Intercept 335     0.579  13.3    -25.4        26.6
10 Subject   Intercept 337    34.8    13.3      8.74       60.8
# ... with 26 more rows
…
