Extract random effects from a gam — extract_ranef • gammit
…
#> 335   0.5787623 -10.9059754
#> 337  34.7679030   8.6276228
#> 349 -25.7543312   1.2806892
#> 350 -13.8650598   6.7564064
#> 351   4.9159912  -3.0751356
#> 352  20.9290332   3.5122123
#> 369   3.2586448   0.8730514
#> 370 -26.4758468   4.9837910
#> 371   0.9056510  -1.0052938
#> 372  12.4217547   1.2584037
#> 
#> with conditional variances for “Subject” 
extract_ranef(ga_model)

#> # A tibble: 36 x 7
#>    group_var effect    group   value    se lower_2.5 upper_97.5
#>    <chr>     <chr>     <chr>   <dbl> <dbl>     <dbl>      <dbl>
#>  1 Subject   Intercept 308     1.51   13.3    -24.5        27.5
#>  2 Subject   Intercept 309   -40.4    13.3    -66.4       -14.3
#>  3 Subject   Intercept 310   -39.2    13.3    -65.2       -13.2
#>  4 Subject   Intercept 330    24.5    13.3     -1.51       50.5
#>  5 Subject   Intercept 331    22.9    13.3     -3.11       48.9
#>  6 Subject   Intercept 332     9.22   13.3    -16.8        35.2
#>  7 Subject   Intercept 333    17.2    13.3     -8.87       43.2
#>  8 Subject   Intercept 334    -7.45   13.3    -33.5        18.6
#>  9 Subject   Intercept 335     0.579  13.3    -25.4        26.6
#> 10 Subject   Intercept 337    34.8    13.3      8.74       60.8
#> # … with 26 more rows
…
